<?xml version="1.0" encoding="UTF-8"?>
<session version="1.0">
<refactoring accessors="true" comment="Delete element from project &apos;viies päev&apos;&#x0D;&#x0A;- Original project: &apos;viies päev&apos;&#x0D;&#x0A;- Original element: &apos;Listülesanne.java&apos;" description="Delete element" element1="/src&lt;{Listülesanne.java" elements="1" flags="589830" id="org.eclipse.jdt.ui.delete" resources="0" stamp="1484914375767" subPackages="false" version="1.0"/>
</session>